44
659
794
1017
1152
1436
1541
1631
1721
1777
1822
1914
2012
2339
2509
2605
2658
2841
3220
3339
3345
3399
3566
3745
3746
3847
3908
3998
4012
4133
5056
5108
5317
5329
5372
5828
5927
6315
6458
6497
6508
6941
6993
7086
7255
7375
7876
8016
8024
8167
8240
8246
8523
8572
8585
8606
8908
8911
8931
9032
9062
9118
9311
9559
9620
9823
10041
10147
10216
10637
10849
11075
11516
11521
11522
11572
11816
12177
12318
12382
12465
12467
12673
13411
13448
13562
13976
14235
14384
14696
14884
15068
15108
15255
15279
15517
15743
16114
16203
16213
16260
16321
17129
17316
17501
17518
17542
17595
17647
17710
17759
17964
17966
18172
18624
19089
19225
19270
19364
19371
19426
19432
19534
19544
19706
20201
20399
20423
20483
20851
21290
21312
21436
21455
21585
21670
21942
22002
22205
22288
22398
22647
22680
22834
23023
23440
23445
23535
23619
23620
23845
23852
23909
24177
24250
24504
24667
24705
24970
24986
25014
25098
25377
25514
25686
25906
26283
26514
26666
26897
26907
27444
27523
27589
27692
27798
27812
27929
28272
28792
29525
29555
29783
29837
29945
30024
30078
30703
30819
31004
31197
31514
31588
31855
31896
31958
31972
32100
32186
32473
